<svg version="1.1" xmlns="http://www.w3.org/2000/svg" viewBox="0 0 620 600" width="1860" height="1800">
  <!-- svg-source:excalidraw -->
  
  <defs>
    <style class="style-fonts">
      @font-face {
        font-family: "Virgil";
        src: url("https://excalidraw.com/Virgil.woff2");
      }
      @font-face {
        font-family: "Cascadia";
        src: url("https://excalidraw.com/Cascadia.woff2");
      }
    </style>
    
  </defs>
  <g stroke-linecap="round" transform="translate(10 230) rotate(0 100 60)"><path d="M30 0 C62.84 -1.8, 98.65 -0.78, 170 0 M30 0 C77.6 0.49, 124.97 0.51, 170 0 M170 0 C188.39 0.44, 198.02 8.33, 200 30 M170 0 C187.91 -1.03, 201.06 11.21, 200 30 M200 30 C200.59 40.23, 200.39 54.05, 200 90 M200 30 C199.23 48.88, 200.74 69.96, 200 90 M200 90 C201.26 111.81, 191.46 120.69, 170 120 M200 90 C198.38 109.29, 190.25 118.39, 170 120 M170 120 C134.94 117.06, 96.53 117.59, 30 120 M170 120 C140.34 119.32, 110.86 117.89, 30 120 M30 120 C11.86 119.72, -1.89 111.85, 0 90 M30 120 C8.02 120.87, 0.74 111.66, 0 90 M0 90 C-0.57 78.18, 0.9 65.41, 0 30 M0 90 C0.89 74.05, 1.08 58.47, 0 30 M0 30 C0.79 11.69, 10.36 -0.26, 30 0 M0 30 C0.56 11.79, 11.53 0.25, 30 0" stroke="#2dcd4d" stroke-width="2" fill="none"></path></g><g transform="translate(60.57500076293945 277.5) rotate(0 49.42499923706055 12.5)"><text x="49.42499923706055" y="0" font-family="Virgil, Segoe UI Emoji" font-size="20px" fill="#2dcd4d" text-anchor="middle" style="white-space: pre;" direction="ltr" dominant-baseline="text-before-edge">Component</text></g><g stroke-linecap="round" transform="translate(210 470) rotate(0 100 60)"><path d="M30 0 C61.35 -0.63, 90.84 0.83, 170 0 M30 0 C74.25 0.83, 118.46 -0.7, 170 0 M170 0 C190.3 1.05, 199.46 9.53, 200 30 M170 0 C191.12 0.94, 199.36 8.93, 200 30 M200 30 C200.86 51.57, 198.38 72.62, 200 90 M200 30 C200.47 44.64, 201.23 59.45, 200 90 M200 90 C199.44 109.17, 190.52 118.46, 170 120 M200 90 C199.28 111.45, 189.41 118.63, 170 120 M170 120 C127.67 120.3, 87.83 120.24, 30 120 M170 120 C129.97 117.86, 91.16 119.16, 30 120 M30 120 C8.12 121.5, -0.56 111.94, 0 90 M30 120 C11.92 119.47, -1.87 110.49, 0 90 M0 90 C-1.28 72.25, -1.57 53.16, 0 30 M0 90 C-0.35 70.55, -0.39 53.75, 0 30 M0 30 C-1.95 8.75, 8.09 0.74, 30 0 M0 30 C1.1 10.48, 11.69 -1.58, 30 0" stroke="#2dcd4d" stroke-width="2" fill="none"></path></g><g transform="translate(277.86249923706055 517.5) rotate(0 32.13750076293945 12.5)"><text x="32.13750076293945" y="0" font-family="Virgil, Segoe UI Emoji" font-size="20px" fill="#2dcd4d" text-anchor="middle" style="white-space: pre;" direction="ltr" dominant-baseline="text-before-edge">Person</text></g><g stroke-linecap="round" transform="translate(10 10) rotate(0 100 60)"><path d="M30 0 C63.6 0.16, 95.15 2.54, 170 0 M30 0 C59.25 -1.02, 86.42 -0.47, 170 0 M170 0 C190.87 0.37, 201.53 9.87, 200 30 M170 0 C192.25 0.99, 200.38 8.67, 200 30 M200 30 C198.48 46.55, 200.66 65.49, 200 90 M200 30 C200.53 46.69, 200.26 62.87, 200 90 M200 90 C201.72 110.41, 188.89 120.74, 170 120 M200 90 C200.7 107.95, 188.08 118.9, 170 120 M170 120 C126.6 120.75, 84.51 119.4, 30 120 M170 120 C120.41 120.66, 70.3 120.08, 30 120 M30 120 C9.46 119.27, -0.92 108.59, 0 90 M30 120 C9.86 121.75, -0.29 108.62, 0 90 M0 90 C-1.97 75.18, -0.37 59.72, 0 30 M0 90 C1.49 67.59, 1.15 45.52, 0 30 M0 30 C-1.49 8.75, 10.06 -0.09, 30 0 M0 30 C-1.94 9.9, 10.92 2.08, 30 0" stroke="#2dcd4d" stroke-width="2" fill="none"></path></g><g transform="translate(21.650001525878906 57.5) rotate(0 88.3499984741211 12.5)"><text x="88.3499984741211" y="0" font-family="Virgil, Segoe UI Emoji" font-size="20px" fill="#2dcd4d" text-anchor="middle" style="white-space: pre;" direction="ltr" dominant-baseline="text-before-edge">DataAccessHelper</text></g><g stroke-linecap="round"><g transform="translate(160.833332839818 351) rotate(0 43.86522773978054 59.8833242911939)"><path d="M-0.97 0.74 C13.75 20.78, 73.88 100.02, 88.7 119.69 M0.72 0.08 C15.21 19.83, 72.59 97.96, 87.51 117.93" stroke="#2dcd4d" stroke-width="2" fill="none"></path></g><g transform="translate(160.833332839818 351) rotate(0 43.86522773978054 59.8833242911939)"><path d="M62.5 101.37 C71.88 106.25, 80.04 110.49, 87.51 117.93 M62.5 101.37 C69.85 106.29, 77.04 110.12, 87.51 117.93" stroke="#2dcd4d" stroke-width="2" fill="none"></path></g><g transform="translate(160.833332839818 351) rotate(0 43.86522773978054 59.8833242911939)"><path d="M79 89.16 C82.89 97.93, 85.62 106.18, 87.51 117.93 M79 89.16 C81.82 97.52, 84.42 104.74, 87.51 117.93" stroke="#2dcd4d" stroke-width="2" fill="none"></path></g></g><mask></mask><g stroke-linecap="round"><g transform="translate(109.98231791354665 229) rotate(0 0.06394891809180993 -48.94712855283805)"><path d="M0.11 -0.1 C0.15 -16.46, 0.14 -81.74, 0.14 -98.06 M-0.02 0.16 C0.03 -16.19, 0.07 -81.57, 0.1 -97.9" stroke="#2dcd4d" stroke-width="2" fill="none"></path></g><g transform="translate(109.98231791354665 229) rotate(0 0.06394891809180993 -48.94712855283805)"><path d="M10.33 -69.7 C7.83 -75.69, 5.65 -81.95, 0.1 -97.9 M10.33 -69.7 C7.12 -78.49, 4.15 -87.12, 0.1 -97.9" stroke="#2dcd4d" stroke-width="2" fill="none"></path></g><g transform="translate(109.98231791354665 229) rotate(0 0.06394891809180993 -48.94712855283805)"><path d="M-10.19 -69.72 C-8.13 -75.73, -5.76 -81.98, 0.1 -97.9 M-10.19 -69.72 C-7.04 -78.49, -3.65 -87.11, 0.1 -97.9" stroke="#2dcd4d" stroke-width="2" fill="none"></path></g></g><mask></mask><g stroke-linecap="round" transform="translate(410 230) rotate(0 100 60)"><path d="M30 0 C59.73 -2.45, 88.38 -1.99, 170 0 M30 0 C70.62 0.47, 112.23 1.58, 170 0 M170 0 C188.27 -0.36, 200.24 8.46, 200 30 M170 0 C188.85 0.39, 198.96 11.88, 200 30 M200 30 C200.8 43.79, 200.22 62.34, 200 90 M200 30 C200.45 51.33, 200.26 74.48, 200 90 M200 90 C199.27 111.86, 191.21 120.54, 170 120 M200 90 C198.77 107.85, 189.9 118.87, 170 120 M170 120 C132.67 117.4, 94.66 119.9, 30 120 M170 120 C139.36 121.61, 107.74 120.93, 30 120 M30 120 C8.57 120.19, 1.42 111.36, 0 90 M30 120 C9.34 120.65, -2.06 107.72, 0 90 M0 90 C0.81 74.15, 0.71 61.27, 0 30 M0 90 C-0.54 78.22, -0.79 65.63, 0 30 M0 30 C-1.65 9.84, 10.74 1.65, 30 0 M0 30 C-0.98 9.78, 8.27 0.2, 30 0" stroke="#2dcd4d" stroke-width="2" fill="none"></path></g><g transform="translate(460.57500076293945 277.5) rotate(0 49.42499923706055 12.5)"><text x="49.42499923706055" y="0" font-family="Virgil, Segoe UI Emoji" font-size="20px" fill="#2dcd4d" text-anchor="middle" style="white-space: pre;" direction="ltr" dominant-baseline="text-before-edge">Component</text></g><g stroke-linecap="round" transform="translate(410 10) rotate(0 100 60)"><path d="M30 0 C60.66 1.75, 90.74 -0.21, 170 0 M30 0 C69.5 -1.56, 110.84 -2.15, 170 0 M170 0 C189 0.34, 199.09 11.63, 200 30 M170 0 C189.02 1.77, 200.69 10.39, 200 30 M200 30 C201.21 42.86, 198.32 57.02, 200 90 M200 30 C199.82 45.9, 200.79 60.21, 200 90 M200 90 C198.93 108.13, 189.91 119.02, 170 120 M200 90 C199.2 112.13, 188.4 119.79, 170 120 M170 120 C137.88 119.39, 109.94 122.51, 30 120 M170 120 C116.47 120.22, 65.08 120.81, 30 120 M30 120 C9.42 120.56, -1.79 108.02, 0 90 M30 120 C8.43 121.88, 1.67 111.49, 0 90 M0 90 C-2.19 79.02, 1.57 65.35, 0 30 M0 90 C-0.56 67.54, 0.64 46.06, 0 30 M0 30 C-0.86 9.81, 8.5 0.18, 30 0 M0 30 C0.63 9.69, 8.28 -1.27, 30 0" stroke="#2dcd4d" stroke-width="2" fill="none"></path></g><g transform="translate(458.1875 57.5) rotate(0 51.8125 12.5)"><text x="51.8125" y="0" font-family="Virgil, Segoe UI Emoji" font-size="20px" fill="#2dcd4d" text-anchor="middle" style="white-space: pre;" direction="ltr" dominant-baseline="text-before-edge">RestHelper</text></g><g stroke-linecap="round"><g transform="translate(510 230) rotate(0 0.025046645228854914 -49.027539834244266)"><path d="M-0.07 -0.02 C-0.08 -16.32, 0.02 -81.52, 0.01 -97.85 M0.15 -0.15 C0.12 -16.48, -0.11 -81.75, -0.1 -98.04" stroke="#2dcd4d" stroke-width="2" fill="none"></path></g><g transform="translate(510 230) rotate(0 0.025046645228854914 -49.027539834244266)"><path d="M10.21 -69.87 C6.61 -79.67, 3.34 -89.71, -0.1 -98.04 M10.21 -69.87 C7.22 -77.8, 4.32 -85.65, -0.1 -98.04" stroke="#2dcd4d" stroke-width="2" fill="none"></path></g><g transform="translate(510 230) rotate(0 0.025046645228854914 -49.027539834244266)"><path d="M-10.31 -69.83 C-6.78 -79.63, -2.92 -89.68, -0.1 -98.04 M-10.31 -69.83 C-7.51 -77.75, -4.62 -85.61, -0.1 -98.04" stroke="#2dcd4d" stroke-width="2" fill="none"></path></g></g><mask></mask><g stroke-linecap="round"><g transform="translate(470 350) rotate(0 -50.19942140170372 60.3395183592383)"><path d="M0.71 -1.09 C-16.05 18.85, -83.23 99.9, -100.11 120.15 M-0.37 0.95 C-17.34 21.06, -84.24 102.2, -101.11 121.77" stroke="#2dcd4d" stroke-width="2" fill="none"></path></g><g transform="translate(470 350) rotate(0 -50.19942140170372 60.3395183592383)"><path d="M-90.83 93.59 C-96 103.01, -97.41 111.8, -101.11 121.77 M-90.83 93.59 C-94.53 103.01, -97.03 112.68, -101.11 121.77" stroke="#2dcd4d" stroke-width="2" fill="none"></path></g><g transform="translate(470 350) rotate(0 -50.19942140170372 60.3395183592383)"><path d="M-75.12 106.79 C-85.67 111.84, -92.39 116.16, -101.11 121.77 M-75.12 106.79 C-84.06 111.7, -91.85 116.92, -101.11 121.77" stroke="#2dcd4d" stroke-width="2" fill="none"></path></g></g><mask></mask></svg>