<svg version="1.1" xmlns="http://www.w3.org/2000/svg" viewBox="0 0 220 580" width="660" height="1740">
  <!-- svg-source:excalidraw -->
  
  <defs>
    <style class="style-fonts">
      @font-face {
        font-family: "Virgil";
        src: url("https://excalidraw.com/Virgil.woff2");
      }
      @font-face {
        font-family: "Cascadia";
        src: url("https://excalidraw.com/Cascadia.woff2");
      }
    </style>
    
  </defs>
  <g stroke-linecap="round" transform="translate(10 10) rotate(0 100 60)"><path d="M30 0 C62.84 -1.8, 98.65 -0.78, 170 0 M30 0 C77.6 0.49, 124.97 0.51, 170 0 M170 0 C188.39 0.44, 198.02 8.33, 200 30 M170 0 C187.91 -1.03, 201.06 11.21, 200 30 M200 30 C200.59 40.23, 200.39 54.05, 200 90 M200 30 C199.23 48.88, 200.74 69.96, 200 90 M200 90 C201.26 111.81, 191.46 120.69, 170 120 M200 90 C198.38 109.29, 190.25 118.39, 170 120 M170 120 C134.94 117.06, 96.53 117.59, 30 120 M170 120 C140.34 119.32, 110.86 117.89, 30 120 M30 120 C11.86 119.72, -1.89 111.85, 0 90 M30 120 C8.02 120.87, 0.74 111.66, 0 90 M0 90 C-0.57 78.18, 0.9 65.41, 0 30 M0 90 C0.89 74.05, 1.08 58.47, 0 30 M0 30 C0.79 11.69, 10.36 -0.26, 30 0 M0 30 C0.56 11.79, 11.53 0.25, 30 0" stroke="#2dcd4d" stroke-width="2" fill="none"></path></g><g transform="translate(21.650001525878906 57.5) rotate(0 88.3499984741211 12.5)"><text x="88.3499984741211" y="0" font-family="Virgil, Segoe UI Emoji" font-size="20px" fill="#2dcd4d" text-anchor="middle" style="white-space: pre;" direction="ltr" dominant-baseline="text-before-edge">DataAccessHelper</text></g><g stroke-linecap="round" transform="translate(10 230) rotate(0 100 60)"><path d="M30 0 C84.03 -3.08, 142.69 -0.78, 170 0 M30 0 C83.21 -0.4, 138.28 -1.72, 170 0 M170 0 C191.03 -0.18, 199.11 8.09, 200 30 M170 0 C190.79 0.09, 198.99 10.18, 200 30 M200 30 C201.69 43.38, 199.17 60.62, 200 90 M200 30 C199.68 50.58, 199.53 68.61, 200 90 M200 90 C201.58 108.99, 188.67 121.68, 170 120 M200 90 C198.55 109.63, 192.22 122.01, 170 120 M170 120 C131.79 120.89, 96.04 119.17, 30 120 M170 120 C115.59 118.98, 60.95 118.83, 30 120 M30 120 C9.8 121.76, 0.73 109.89, 0 90 M30 120 C10.83 120.84, -0.09 107.85, 0 90 M0 90 C2.32 67.59, -1.57 47.56, 0 30 M0 90 C0.44 73.76, 0.56 56.12, 0 30 M0 30 C-0.61 9.53, 10.21 1.06, 30 0 M0 30 C-1.72 8.52, 9.62 -2.04, 30 0" stroke="#2dcd4d" stroke-width="2" fill="none"></path></g><g transform="translate(60.57500076293945 277.5) rotate(0 49.42499923706055 12.5)"><text x="49.42499923706055" y="0" font-family="Virgil, Segoe UI Emoji" font-size="20px" fill="#2dcd4d" text-anchor="middle" style="white-space: pre;" direction="ltr" dominant-baseline="text-before-edge">Component</text></g><g stroke-linecap="round" transform="translate(10 450) rotate(0 100 60)"><path d="M30 0 C71.04 1.32, 112.4 1.4, 170 0 M30 0 C61.26 0.22, 92.56 1.81, 170 0 M170 0 C189.69 -1.25, 201.91 11.61, 200 30 M170 0 C192.12 1.87, 199.95 10.29, 200 30 M200 30 C199.99 51.86, 202.36 75.55, 200 90 M200 30 C199.2 46.37, 199.93 64.23, 200 90 M200 90 C200.6 108.72, 189.99 121.22, 170 120 M200 90 C198.42 112.1, 188.79 121.28, 170 120 M170 120 C126.27 122.97, 83.26 122.9, 30 120 M170 120 C135.61 120.26, 100.37 121.61, 30 120 M30 120 C8.59 119.83, 1.01 111.11, 0 90 M30 120 C10.59 121.72, -1.35 109.33, 0 90 M0 90 C0.51 76.57, 1.84 65.95, 0 30 M0 90 C-0.13 76.97, -0.37 62.88, 0 30 M0 30 C-1.28 10.52, 8.46 -0.6, 30 0 M0 30 C-0.89 10.77, 9.12 -0.73, 30 0" stroke="#2dcd4d" stroke-width="2" fill="none"></path></g><g transform="translate(77.86249923706055 497.5) rotate(0 32.13750076293945 12.5)"><text x="32.13750076293945" y="0" font-family="Virgil, Segoe UI Emoji" font-size="20px" fill="#2dcd4d" text-anchor="middle" style="white-space: pre;" direction="ltr" dominant-baseline="text-before-edge">Person</text></g><g stroke-linecap="round"><g transform="translate(110.14895356627244 230.1011947774765) rotate(0 -0.028357606190098403 -50.00078074561088)"><path d="M0.02 0.1 C0.01 -16.57, 0.09 -83.43, 0.09 -100.1 M-0.15 0.02 C-0.17 -16.63, 0 -83.27, 0.02 -99.97" stroke="#2dcd4d" stroke-width="2" fill="none"></path></g><g transform="translate(110.14895356627244 230.1011947774765) rotate(0 -0.028357606190098403 -50.00078074561088)"><path d="M10.23 -71.75 C6.49 -82.5, 2.15 -93.48, 0.02 -99.97 M10.23 -71.75 C6.59 -82.01, 2.82 -92.31, 0.02 -99.97" stroke="#2dcd4d" stroke-width="2" fill="none"></path></g><g transform="translate(110.14895356627244 230.1011947774765) rotate(0 -0.028357606190098403 -50.00078074561088)"><path d="M-10.29 -71.8 C-6.09 -82.53, -2.48 -93.49, 0.02 -99.97 M-10.29 -71.8 C-6.42 -82.03, -2.67 -92.32, 0.02 -99.97" stroke="#2dcd4d" stroke-width="2" fill="none"></path></g></g><mask></mask><g stroke-linecap="round"><g transform="translate(110 350) rotate(0 0.06014892908885884 50.03196836622527)"><path d="M-0.05 0.05 C-0.06 16.73, -0.08 83.29, -0.09 99.95 M0.19 -0.05 C0.23 16.66, 0.19 83.4, 0.2 100.11" stroke="#2dcd4d" stroke-width="2" fill="none"></path></g><g transform="translate(110 350) rotate(0 0.06014892908885884 50.03196836622527)"><path d="M-10.06 71.92 C-7.3 79.14, -4.81 86.52, 0.2 100.11 M-10.06 71.92 C-6.8 81.16, -3.46 90.25, 0.2 100.11" stroke="#2dcd4d" stroke-width="2" fill="none"></path></g><g transform="translate(110 350) rotate(0 0.06014892908885884 50.03196836622527)"><path d="M10.46 71.92 C7.84 79.13, 4.95 86.51, 0.2 100.11 M10.46 71.92 C7.03 81.15, 3.68 90.24, 0.2 100.11" stroke="#2dcd4d" stroke-width="2" fill="none"></path></g></g><mask></mask></svg>