<?xml version="1.0" encoding="UTF-8" standalone="no"?>
<svg xmlns="http://www.w3.org/2000/svg" xmlns:xlink="http://www.w3.org/1999/xlink" contentStyleType="text/css" height="222.9167px" preserveAspectRatio="none" style="width:245px;height:222px;" version="1.1" viewBox="0 0 245 222" width="245.8333px" zoomAndPan="magnify"><defs><linearGradient id="gtpu2gvu8mv9w0" x1="50%" x2="50%" y1="0%" y2="100%"><stop offset="0%" stop-color="#D3F198"/><stop offset="100%" stop-color="#B5E853"/></linearGradient></defs><g><!--MD5=[09ce52be0ee7de43c61b6e2d59bf108b]
class Person--><g id="elem_Person"><rect codeLine="2" fill="url(#gtpu2gvu8mv9w0)" height="98.348" id="Person" rx="20.8333" ry="20.8333" style="stroke:#D3F198;stroke-width:1.0416666666666667;" width="88.5417" x="17.7083" y="65.625"/><rect fill="url(#gtpu2gvu8mv9w0)" height="34.1715" rx="20.8333" ry="20.8333" style="stroke:url(#gtpu2gvu8mv9w0);stroke-width:1.0416666666666667;" width="88.5417" x="17.7083" y="65.625"/><rect fill="url(#gtpu2gvu8mv9w0)" height="20.8333" style="stroke:url(#gtpu2gvu8mv9w0);stroke-width:1.0416666666666667;" width="88.5417" x="17.7083" y="78.9632"/><rect codeLine="2" fill="none" height="98.348" id="Person" rx="20.8333" ry="20.8333" style="stroke:#D3F198;stroke-width:1.0416666666666667;" width="88.5417" x="17.7083" y="65.625"/><ellipse cx="35.5729" cy="82.7108" fill="none" rx="10.4167" ry="10.4167" style="stroke:#6D8B32;stroke-width:1.0416666666666667;"/><path d="M37.5098,79.3254 C36.8262,78.9998 36.3867,78.9022 35.7357,78.9022 C33.8151,78.9022 32.334,80.4159 32.334,82.4178 L32.334,83.2479 C32.334,85.1522 33.8965,86.5356 36.0124,86.5356 C36.9076,86.5356 37.7702,86.3078 38.3073,85.9009 C38.7467,85.6079 38.9746,85.2824 38.9746,84.9894 C38.9746,84.6639 38.6816,84.3709 38.3561,84.3709 C38.1934,84.3709 38.0469,84.436 37.9004,84.5662 C37.5586,84.9243 37.5586,84.9243 37.4284,84.9894 C37.1191,85.1847 36.6146,85.2824 36.0449,85.2824 C34.5475,85.2824 33.5872,84.4686 33.5872,83.2153 L33.5872,82.4178 C33.5872,81.0994 34.515,80.1392 35.7845,80.1392 C36.2077,80.1392 36.6634,80.2531 37.0052,80.4484 C37.3633,80.6437 37.4935,80.8065 37.5586,81.0994 C37.6074,81.4087 37.6237,81.4901 37.7214,81.5877 C37.819,81.7017 37.998,81.7668 38.1608,81.7668 C38.3724,81.7668 38.5514,81.6691 38.6816,81.5063 C38.763,81.3924 38.7956,81.2622 38.7956,80.9367 L38.7956,79.895 C38.7956,79.5858 38.7793,79.4881 38.6979,79.3742 C38.584,79.1789 38.3887,79.0649 38.1608,79.0649 C37.9492,79.0649 37.8027,79.1463 37.64,79.3742 L37.5098,79.3254 Z " fill="#151515"/><text fill="#151515" font-family="&quot;Verdana&quot;" font-size="11.4583" lengthAdjust="spacing" textLength="39.5833" x="55.0521" y="86.6776">Person</text><line style="stroke:#D3F198;stroke-width:1.0416666666666667;" x1="18.75" x2="105.2083" y1="99.7965" y2="99.7965"/><line style="stroke:#D3F198;stroke-width:1.0416666666666667;" x1="18.75" x2="105.2083" y1="108.1299" y2="108.1299"/><text fill="#151515" font-family="&quot;Verdana&quot;" font-size="11.4583" lengthAdjust="spacing" textLength="65.625" x="29.1667" y="128.1408">usecase1()</text><text fill="#151515" font-family="&quot;Verdana&quot;" font-size="11.4583" lengthAdjust="spacing" textLength="65.625" x="29.1667" y="151.8957">usecase2()</text></g><!--MD5=[e6d08339476e3d418870a155f71c21bb]
class Person^--><g id="elem_Person^"><rect codeLine="7" fill="url(#gtpu2gvu8mv9w0)" height="193.3675" id="Person^" rx="20.8333" ry="20.8333" style="stroke:#D3F198;stroke-width:1.0416666666666667;" width="90.625" x="142.7083" y="17.7083"/><rect fill="url(#gtpu2gvu8mv9w0)" height="34.1715" rx="20.8333" ry="20.8333" style="stroke:url(#gtpu2gvu8mv9w0);stroke-width:1.0416666666666667;" width="90.625" x="142.7083" y="17.7083"/><rect fill="url(#gtpu2gvu8mv9w0)" height="20.8333" style="stroke:url(#gtpu2gvu8mv9w0);stroke-width:1.0416666666666667;" width="90.625" x="142.7083" y="31.0465"/><rect codeLine="7" fill="none" height="193.3675" id="Person^" rx="20.8333" ry="20.8333" style="stroke:#D3F198;stroke-width:1.0416666666666667;" width="90.625" x="142.7083" y="17.7083"/><ellipse cx="157.2917" cy="34.7941" fill="none" rx="10.4167" ry="10.4167" style="stroke:#6D8B32;stroke-width:1.0416666666666667;"/><path d="M159.2285,31.4087 C158.5449,31.0832 158.1055,30.9855 157.4544,30.9855 C155.5339,30.9855 154.0527,32.4992 154.0527,34.5011 L154.0527,35.3312 C154.0527,37.2355 155.6152,38.619 157.7311,38.619 C158.6263,38.619 159.4889,38.3911 160.026,37.9842 C160.4655,37.6912 160.6934,37.3657 160.6934,37.0728 C160.6934,36.7472 160.4004,36.4543 160.0749,36.4543 C159.9121,36.4543 159.7656,36.5194 159.6191,36.6496 C159.2773,37.0076 159.2773,37.0076 159.1471,37.0728 C158.8379,37.2681 158.3333,37.3657 157.7637,37.3657 C156.2663,37.3657 155.306,36.5519 155.306,35.2987 L155.306,34.5011 C155.306,33.1828 156.2337,32.2225 157.5033,32.2225 C157.9264,32.2225 158.3822,32.3364 158.724,32.5317 C159.082,32.7271 159.2122,32.8898 159.2773,33.1828 C159.3262,33.492 159.3424,33.5734 159.4401,33.6711 C159.5378,33.785 159.7168,33.8501 159.8796,33.8501 C160.0911,33.8501 160.2702,33.7524 160.4004,33.5897 C160.4818,33.4757 160.5143,33.3455 160.5143,33.02 L160.5143,31.9784 C160.5143,31.6691 160.498,31.5715 160.4167,31.4575 C160.3027,31.2622 160.1074,31.1483 159.8796,31.1483 C159.668,31.1483 159.5215,31.2297 159.3587,31.4575 L159.2285,31.4087 Z " fill="#151515"/><text fill="#151515" font-family="&quot;Verdana&quot;" font-size="11.4583" lengthAdjust="spacing" textLength="48.9583" x="176.0417" y="38.7609">Person^</text><line style="stroke:#D3F198;stroke-width:1.0416666666666667;" x1="143.75" x2="232.2917" y1="51.8799" y2="51.8799"/><line style="stroke:#D3F198;stroke-width:1.0416666666666667;" x1="143.75" x2="232.2917" y1="60.2132" y2="60.2132"/><text fill="#151515" font-family="&quot;Verdana&quot;" font-size="11.4583" lengthAdjust="spacing" textLength="65.625" x="154.1667" y="80.2241">usecase1()</text><text fill="#151515" font-family="&quot;Verdana&quot;" font-size="11.4583" lengthAdjust="spacing" textLength="65.625" x="154.1667" y="103.979">usecase2()</text><text fill="#151515" font-family="&quot;Verdana&quot;" font-size="11.4583" lengthAdjust="spacing" textLength="65.625" x="154.1667" y="127.7339">usecase3()</text><text fill="#151515" font-family="&quot;Verdana&quot;" font-size="11.4583" lengthAdjust="spacing" textLength="65.625" x="154.1667" y="151.4887">usecase4()</text><text fill="#151515" font-family="&quot;Verdana&quot;" font-size="11.4583" lengthAdjust="spacing" textLength="65.625" x="154.1667" y="175.2436">usecase5()</text><text fill="#151515" font-family="&quot;Verdana&quot;" font-size="11.4583" lengthAdjust="spacing" textLength="65.625" x="154.1667" y="198.9985">usecase6()</text></g><!--MD5=[cec4ecf76c8016ab8b223a3fa2d5922c]
@startuml
!theme hacker
class Person{
  usecase1()
  usecase2()
}

class Person^{
  usecase1()
  usecase2()
  usecase3()
  usecase4()
  usecase5()
  usecase6()
}
@enduml

@startuml



skinparam BackgroundColor transparent
skinparam useBetaStyle false






<style>
  root {
    BackgroundColor transparent
    FontColor #151515
    HyperLinkColor $ORANGE
    LineColor #6d8b32
    LineThickness 1
    Margin 10
    Padding 6
    Shadowing 0.0
  }
  node {
   Padding 15
   roundcorner 20
   BackgroundColor #b5e853-#6d8b32
  }
  caption {
    LineThickness 0
  }
  footer {
    LineThickness 0
  }
  groupHeader {
    BackgroundColor #6a9fb5
    FontColor #aa759f
    FontStyle bold
  }
  header {
    LineThickness 0
  }
  referenceHeader {
    BackgroundColor transparent
    FontColor #eaeaea
    FontStyle bold
  }
  separator {
    BackgroundColor $FGCOLOR
    FontColor transparent
    FontStyle bold
  }
  title {
	FontSize 20
	BorderRoundCorner            8
	BorderThickness 	         1
	BackgroundColor  #88b2c4-#6a9fb5
	FontColor #b5e853
	BorderColor #6a9fb5
  }
  nwdiagDiagram {
	network {
			FontColor #151515
	BorderColor #d3f198
	BackgroundColor #d3f198-#b5e853    
		LineColor #b5e853
		LineThickness 1.0
		FontColor #d3f198
	}
	server {
			FontColor #151515
	BorderColor #d3f198
	BackgroundColor #d3f198-#b5e853
	}
	arrow {
		FontColor #d3f198
		LineColor #d3f198
	}
	group {
		BackGroundColor #151515
		LineColor $LIGHT_DARK
		LineThickness 2.0
		Margin 5
		Padding 5
	}
  }
  ganttDiagram {
	task {
			FontColor #151515
	BorderColor #d3f198
	BackgroundColor #d3f198-#b5e853
		LineColor #b5e853
		Margin 10
		Padding 6
	}
	note {
		FontColor $INFO_TEXT
		LineColor #885E7F
		BackGroundColor #aa759f
	}
	separator {
		LineColor #6a9fb5
		BackGroundColor #6a9fb5-#557f91
		FontColor #fefefe
	}
	milestone {
		FontColor #aa759f
		FontSize 16
		FontStyle italic
		BackGroundColor #6a9fb5
		LineColor #557f91
	}
	timeline {
		BackgroundColor #6a9fb5
		FontColor #fefefe
	}
	closed {
		BackgroundColor $WARNING_DARK
		FontColor #151515
	}
  }
</style>
skinparam defaultFontName       "Verdana"
skinparam defaultFontSize       12
skinparam dpi                   100
skinparam shadowing             false
skinparam roundcorner           40
skinparam ParticipantPadding    40
skinparam BoxPadding            40
skinparam Padding               5
skinparam ArrowColor            #eaeaea
skinparam stereotype {
    CBackgroundColor #557f91
    CBorderColor #88b2c4
    ABackgroundColor #a6ba7a
    ABorderColor $SUCCESS_DARK
    IBackgroundColor #bd6768
    IBorderColor $DANGER_DARK
    EBackgroundColor #f6cc91
    EBorderColor $WARNING_DARK
    NBackgroundColor #bb91b2
    NBorderColor #885E7F
}
skinparam title {
	FontColor	                 #b5e853
	BorderColor	                 #b5e853
	FontSize	    	         20
	BorderRoundCorner            8
	BorderThickness 	         1
	BackgroundColor              #151515-black
}


skinparam legend {
	BackgroundColor #6a9fb5
	BorderColor #557f91
	FontColor #eaeaea
}

skinparam swimlane {
	BorderColor #aa759f
	BorderThickness 2
	TitleBackgroundColor  #88b2c4-#6a9fb5
	TitleFontColor #b5e853
}


skinparam activity {
		FontColor #151515
	BorderColor #d3f198
	BackgroundColor #d3f198-#b5e853
	BarColor #90a959
	StartColor #aa759f
	EndColor #aa759f
	DiamondBackgroundColor #88b2c4-#6a9fb5
  	DiamondBorderColor #88b2c4
  	DiamondFontColor #fefefe
}


skinparam participant {
		FontColor #151515
	BorderColor #d3f198
	BackgroundColor #d3f198-#b5e853
	BorderThickness 2
}


skinparam actor {
		FontColor #151515
	BorderColor #d3f198
	BackgroundColor #d3f198-#b5e853
	FontColor #eaeaea
}


skinparam arrow {
	Thickness 3
	Color #b5e853
	FontColor $FGCOLOR
}


skinparam sequence {
	BorderColor #b5e853
	TitleFontColor #b5e853
	BackgroundColor transparent
	StartColor #b5e853
	EndColor #b5e853
	BoxBackgroundColor transparent
	BoxBorderColor #eaeaea
	BoxFontColor #eaeaea
	DelayFontColor #eaeaea
	LifeLineBorderColor #6a9fb5
	LifeLineBorderThickness 2
	LifeLineBackgroundColor #557f91
	GroupBackgroundColor #151515
	GroupBorderColor #eaeaea
	GroupFontColor #eaeaea
	GroupHeaderFontColor #aa759f
	GroupHeaderBackgroundColor transparent
	DividerBackgroundColor #eaeaea
    DividerBorderColor #eaeaea
    DividerBorderThickness 2
    DividerFontColor #151515
	ReferenceBackgroundColor transparent
	ReferenceBorderColor #eaeaea
	ReferenceFontColor #eaeaea
	ReferenceHeaderBackgroundColor #151515
	StereotypeFontColor #151515
}


skinparam partition {
	BorderColor #b5e853
	FontColor #b5e853
	BackgroundColor #151515-black
}


skinparam collections {
		FontColor #151515
	BorderColor #d3f198
	BackgroundColor #d3f198-#b5e853
}


skinparam control {
		FontColor #151515
	BorderColor #d3f198
	BackgroundColor #d3f198-#b5e853
	FontColor #eaeaea
}


skinparam entity {
		FontColor #151515
	BorderColor #d3f198
	BackgroundColor #d3f198-#b5e853
	FontColor #eaeaea
}


skinparam boundary {
		FontColor #151515
	BorderColor #d3f198
	BackgroundColor #d3f198-#b5e853
	FontColor #eaeaea
}


skinparam agent {
	BackgroundColor #f6cc91-#f4bf75
	BorderColor #f6cc91
	FontColor #eaeaea
}


skinparam note {
	BorderThickness 1
	BackgroundColor #bb91b2-#885E7F
	BorderColor #885E7F
	FontColor $WHITE
}


skinparam artifact {
	BackgroundColor #eaeaea
	BorderColor white
	FontColor #151515
}


skinparam component {
		FontColor #151515
	BorderColor #d3f198
	BackgroundColor #d3f198-#b5e853
}


skinparam interface {
	BackgroundColor  #bd6768-#ac4142
	BorderColor  #bd6768
	FontColor #eaeaea
}


skinparam storage {
	BackgroundColor #f6cc91-#f4bf75
  	BorderColor #f6cc91
	FontColor #151515
}


skinparam node {
	BackgroundColor  #151515-black
	BorderColor #d3f198
	FontColor #eaeaea
}


skinparam cloud {
	BackgroundColor transparent
	BorderColor #eaeaea
	FontColor #eaeaea
}


skinparam database {
	BackgroundColor  #151515-black
	BorderColor #d3f198
	FontColor #eaeaea
}


skinparam class {
		FontColor #151515
	BorderColor #d3f198
	BackgroundColor #d3f198-#b5e853
	HeaderBackgroundColor #d3f198-#b5e853
	StereotypeFontColor #eaeaea
	BorderThickness 1
	AttributeFontColor #151515
	AttributeFontSize 11
}


skinparam object {
		FontColor #151515
	BorderColor #d3f198
	BackgroundColor #d3f198-#b5e853
	StereotypeFontColor #eaeaea
	BorderThickness 1
	AttributeFontColor #151515
	AttributeFontSize 11
}


skinparam usecase {
		FontColor #151515
	BorderColor #d3f198
	BackgroundColor #d3f198-#b5e853
	BorderThickness 2
	StereotypeFontColor #b5e853
}


skinparam rectangle {
	BackgroundColor transparent
	BorderColor #b5e853
	BorderThickness 2
	FontColor #6d8b32
	StereotypeFontColor #b5e853
}


skinparam package {
	BackgroundColor #151515
  	BorderColor #b5e853
	FontColor #b5e853
	BorderThickness 2
}


skinparam folder {
	BackgroundColor #151515-black
  	BorderColor #f4bf75
	FontColor #f4bf75
	BorderThickness 2
}


skinparam frame {
	BackgroundColor #151515-black
  	BorderColor #aa759f
	FontColor #aa759f
	BorderThickness 2
}


skinparam state {
		FontColor #151515
	BorderColor #d3f198
	BackgroundColor #d3f198-#b5e853
	StartColor #aa759f
	EndColor #aa759f
	AttributeFontColor #fefefe
	AttributeFontSize 11
}


skinparam queue {
		FontColor #151515
	BorderColor #d3f198
	BackgroundColor #d3f198-#b5e853
}


skinparam card {
	BackgroundColor #bb91b2-#aa759f
	BorderColor #bb91b2
	FontColor $INFO_TEXT
}


skinparam file {
	BackgroundColor #88b2c4-#6a9fb5
	BorderColor #88b2c4
	FontColor #eaeaea
}


skinparam stack {
		FontColor #151515
	BorderColor #d3f198
	BackgroundColor #d3f198-#b5e853
}

<style>
mindmapDiagram, wbsDiagram {
    element {
	    	FontColor #151515
	BorderColor #d3f198
	BackgroundColor #d3f198-#b5e853
	}
	:depth(0) {
        fontSize 16
        fontStyle bold
        fontColor #6a9fb5
    }
    :depth(1) {
        fontSize 14
        padding 5
        fontStyle bold
    }
    :depth(2) {
        fontSize 12
        padding 4
    }
    :depth(3) {
        fontSize 11
        padding 3
        fontColor #aa759f
    }

}
</style>


class Person{
  usecase1()
  usecase2()
}

class Person^{
  usecase1()
  usecase2()
  usecase3()
  usecase4()
  usecase5()
  usecase6()
}
@enduml

PlantUML version 1.2022.13beta7(Unknown compile time)
(GPL source distribution)
Java Runtime: Java(TM) SE Runtime Environment
JVM: Java HotSpot(TM) 64-Bit Server VM
Default Encoding: UTF-8
Language: en
Country: US
--></g></svg>